1_op_prefix_ok.wav,"in this lap for options"
1_rq_suffix_please.wav,"in this lap for option tires"
2_op_prefix_ok.wav,"in this lap for option tires"
2_rq_suffix_please.wav,"box this lap for options"
3_op_prefix_ok.wav,"pit this lap for options"
3_rq_suffix_please.wav,"in this lap for option tires"
