1.wav,"green flag, you're clear"
2.wav,"you're clear, incident clear"
3.wav,"green flag"
4.wav,"incident clear, green flag"
5.wav,"green flag, all clear"
6.wav,"green flag, you're clear"
7.wav,"incident clear, green flag"
