1.wav,"slower car ahead, this guy's their class leader"
2.wav,"slower class car ahead, he's their class leader"
3.wav,"slower car ahead, he's the class leader for these guys"
4.wav,"slower car ahead, this guy's the class leader"
5.wav,"slow car ahead, this guy's their class leader"
