1.wav,"the car ahead has just done a"
10.wav,"the car in front has just done a"
11.wav,"the car ahead has just done a"
12.wav,"the guy in front has just done a"
2.wav,"the guy ahead has just done a"
3.wav,"the guy ahead has just done a"
4.wav,"the car in front has just posted a"
5.wav,"the guy ahead has just posted a"
6.wav,"the guy ahead's lap time is a"
7.wav,"the guy ahead's last lap time is a"
8.wav,"the car in front's lap time is a"
9.wav,"the guy in front has just done a"
